<!DOCTYPE svg PUBLIC "-//W3C//DTD SVG 1.1//EN" "http://www.w3.org/Graphics/SVG/1.1/DTD/svg11.dtd">
<!-- Uploaded to: SVG Repo, www.svgrepo.com, Transformed by: SVG Repo Mixer Tools -->
<svg version="1.1" id="Uploaded to svgrepo.com" xmlns="http://www.w3.org/2000/svg" xmlns:xlink="http://www.w3.org/1999/xlink" width="64px" height="64px" viewBox="0 0 32 32" xml:space="preserve" fill="#176B87">
<g id="SVGRepo_bgCarrier" stroke-width="0"/>
<g id="SVGRepo_tracerCarrier" stroke-linecap="round" stroke-linejoin="round"/>
<g id="SVGRepo_iconCarrier"> <style type="text/css"> .stone_een{fill:#176B87;} .st0{fill:#176B87;} </style> <path class="stone_een" d="M22,16c0.56,0,1.1,0.243,1.481,0.668c0.19,0.211,0.46,0.332,0.744,0.332H27c0.552,0,1-0.448,1-1v-3 c0-1.654-1.346-3-3-3h-7V8.45c1.22-0.706,2-2.016,2-3.45c0-2.206-1.794-4-4-4c-2.206,0-4,1.794-4,4c0,1.434,0.78,2.744,2,3.45V10H7 c-1.654,0-3,1.346-3,3v3c0,0.552,0.448,1,1,1h2.775c0.284,0,0.555-0.121,0.744-0.332C8.9,16.243,9.44,16,10,16c1.103,0,2,0.897,2,2 s-0.897,2-2,2c-0.56,0-1.1-0.243-1.481-0.668C8.329,19.121,8.059,19,7.775,19H5c-0.552,0-1,0.448-1,1v7c0,1.654,1.346,3,3,3h7 c0.552,0,1-0.448,1-1v-2.775c0-0.284-0.121-0.555-0.332-0.744C14.243,25.1,14,24.56,14,24c0-1.103,0.897-2,2-2c1.103,0,2,0.897,2,2 c0,0.56-0.243,1.1-0.668,1.481C17.121,25.67,17,25.941,17,26.225V29c0,0.552,0.448,1,1,1h7c1.654,0,3-1.346,3-3v-7 c0-0.552-0.448-1-1-1h-2.775c-0.284,0-0.555,0.121-0.744,0.332C23.1,19.757,22.56,20,22,20c-1.103,0-2-0.897-2-2S20.897,16,22,16z"/> </g>
</svg>